<?xml version="1.0"?>
<svg xmlns:rdf="http://www.w3.org/1999/02/22-rdf-syntax-ns#" xmlns="http://www.w3.org/2000/svg" xmlns:cc="http://creativecommons.org/ns#" xmlns:dc="http://purl.org/dc/elements/1.1/" xmlns:svg="http://www.w3.org/2000/svg" id="svg2" fill-rule="evenodd" xml:space="preserve" viewBox="0 0 210 297" style="background:#DDDDDD" version="1.0">
 <defs id="defs4">
  <style id="style6" type="text/css"/>
 </defs>
 <path id="rect10" stroke="#1f1a17" stroke-width=".55178" d="m-515.4 4.7491v10.091h9.9628c3.0079-0.000044 5.4284 2.4205 5.4284 5.4284v25.993c0 3.0079-2.4205 5.4284-5.4284 5.4284h-9.9628v198.36h12.198c3.0079 0.00005 5.4284 2.4205 5.4284 5.4284v25.929c0 3.008-2.4205 5.4285-5.4284 5.4284h-12.198v8.3662h1246.9v-62.714h-29.952v-162.92h29.952v-64.822h-1246.9zm33.784 10.091h16.732c3.008-0.000044 5.4923 2.4205 5.4923 5.4284v25.993c0 3.0079-2.4844 5.4284-5.4923 5.4284h-16.732c-3.0079-0.000044-5.4284-2.4205-5.4284-5.4284v-25.993c0.00001-3.008 2.4205-5.4285 5.4284-5.4284zm40.554 0h16.796c3.008-0.000044 5.4284 2.4205 5.4284 5.4284v25.993c0 3.0079-2.4205 5.4284-5.4284 5.4284h-16.796c-3.008-0.000044-5.4284-2.4205-5.4284-5.4284v-25.993c0-3.008 2.4205-5.4285 5.4284-5.4284zm40.617 0h16.732c3.0079-0.000044 5.4284 2.4205 5.4284 5.4284v25.993c0 3.0079-2.4205 5.4284-5.4284 5.4284h-16.732c-3.008-0.000044-5.4284-2.4205-5.4284-5.4284v-25.993c0.00001-3.008 2.4205-5.4285 5.4284-5.4284zm40.554 0h16.796c3.0079-0.000044 5.4284 2.4205 5.4284 5.4284v25.993c0 3.0079-2.4205 5.4284-5.4284 5.4284h-16.796c-3.008-0.000044-5.4284-2.4205-5.4284-5.4284v-25.993c0-3.008 2.4205-5.4285 5.4284-5.4284zm40.617 0h16.732c3.008-0.000044 5.4284 2.4205 5.4284 5.4284v25.993c0 3.0079-2.4205 5.4284-5.4284 5.4284h-16.732c-3.0079-0.000044-5.4284-2.4205-5.4284-5.4284v-25.993c0-3.008 2.4205-5.4285 5.4284-5.4284zm40.554 0h16.796c3.008-0.000044 5.4284 2.4205 5.4284 5.4284v25.993c0.00001 3.0079-2.4205 5.4284-5.4284 5.4284h-16.796c-3.008-0.000044-5.4284-2.4205-5.4284-5.4284v-25.993c0.00002-3.008 2.4205-5.4285 5.4284-5.4284zm40.618 0h16.732c3.008-0.000044 5.4284 2.4205 5.4284 5.4284v25.993c0 3.0079-2.4205 5.4284-5.4284 5.4284h-16.732c-3.0079-0.000044-5.4284-2.4205-5.4284-5.4284v-25.993c0-3.008 2.4205-5.4285 5.4284-5.4284zm40.554 0h16.796c3.0079-0.000044 5.4284 2.4205 5.4284 5.4284v25.993c0 3.0079-2.4205 5.4284-5.4284 5.4284h-16.796c-3.0079-0.000044-5.4284-2.4205-5.4284-5.4284v-25.993c0-3.008 2.4205-5.4285 5.4284-5.4284zm40.618 0h16.732c3.0079-0.000044 5.4284 2.4205 5.4284 5.4284v25.993c-0.00002 3.0079-2.4205 5.4284-5.4284 5.4284h-16.732c-3.008-0.000044-5.4923-2.4205-5.4923-5.4284v-25.993c-0.00003-3.008 2.4843-5.4285 5.4923-5.4284zm40.554 0h16.796c3.008-0.000044 5.4285 2.4205 5.4284 5.4284v25.993c0 3.0079-2.4205 5.4284-5.4284 5.4284h-16.796c-3.008-0.000044-5.4285-2.4205-5.4284-5.4284v-25.993c0-3.008 2.4205-5.4285 5.4284-5.4284zm40.554 0h16.796c3.0079-0.000044 5.4285 2.4205 5.4285 5.4284v25.993c0 3.0079-2.4205 5.4284-5.4285 5.4284h-16.796c-3.0079-0.000044-5.4284-2.4205-5.4284-5.4284v-25.993c0.000017-3.008 2.4205-5.4285 5.4284-5.4284zm40.617 0h16.796c3.008-0.000044 5.4284 2.4205 5.4284 5.4284v25.993c-0.000017 3.0079-2.4205 5.4284-5.4284 5.4284h-16.796c-3.008-0.000044-5.4284-2.4205-5.4284-5.4284v-25.993c-0.000034-3.008 2.4205-5.4285 5.4284-5.4284zm40.554 0h16.796c3.0079-0.000044 5.4285 2.4205 5.4285 5.4284v25.993c-0.000017 3.0079-2.4205 5.4284-5.4285 5.4284h-16.796c-3.008-0.000044-5.4285-2.4205-5.4285-5.4284v-25.993c0.009129-3.008 2.4297-5.428 5.4376-5.428zm40.617 0h16.796c3.0079-0.000022 5.4284 2.4205 5.4284 5.4284v25.993c-0.000017 3.0079-2.4205 5.4284-5.4284 5.4284h-16.796c-3.008-0.000022-5.4285-2.4205-5.4285-5.4284v-25.993c-0.000017-3.0079 2.4205-5.4285 5.4285-5.4284zm40.554 0h16.796c3.008-0.000022 5.4284 2.4205 5.4284 5.4284v25.993c0.00007 3.0079-2.4205 5.4284-5.4284 5.4284h-16.796c-2.996 0-5.416-2.42-5.416-5.428v-25.993c0.000068-3.0079 2.4205-5.4285 5.4285-5.4284zm40.617 0h16.796c3.008-0.000022 5.4284 2.4205 5.4284 5.4284v25.993c0.00009 3.0079-2.4205 5.4284-5.4284 5.4284h-16.796c-3.008-0.000022-5.4284-2.4205-5.4284-5.4284v-25.993c0-3.0079 2.4205-5.4285 5.4284-5.4284zm40.554 0h16.796c3.0079-0.000022 5.4284 2.4205 5.4284 5.4284v25.993c0 3.0079-2.4205 5.4284-5.4284 5.4284h-16.796c-3.008-0.000022-5.4285-2.4205-5.4284-5.4284v-25.993c0-3.0079 2.4205-5.4285 5.4284-5.4284zm40.617 0h16.796c3.008-0.000022 5.4284 2.4205 5.4284 5.4284v25.993c0 3.0079-2.4205 5.4284-5.4284 5.4284h-16.796c-3.008-0.000022-5.4285-2.4205-5.4285-5.4284v-25.993c0-3.0079 2.4205-5.4285 5.4285-5.4284zm40.554 0h16.796c3.0079-0.000022 5.4284 2.4205 5.4284 5.4284v25.993c0 3.0079-2.4205 5.4284-5.4284 5.4284h-16.796c-3.0079-0.000022-5.4284-2.4205-5.4284-5.4284v-25.993c0-3.0079 2.4205-5.4285 5.4284-5.4284zm40.618 0h16.796c3.008-0.000022 5.4284 2.4205 5.4285 5.4284v25.993c0 3.0079-2.4205 5.4284-5.4285 5.4284h-16.796c-3.008-0.000022-5.4285-2.4205-5.4284-5.4284v-25.993c0-3.0079 2.4204-5.4285 5.4284-5.4284zm40.554 0h16.796c3.008-0.000022 5.4284 2.4205 5.4284 5.4284v25.993c0 3.0079-2.4205 5.4284-5.4284 5.4284h-16.796c-3.008-0.000022-5.4285-2.4205-5.4285-5.4284v-25.993c0-3.0079 2.4205-5.4285 5.4285-5.4284zm40.617 0h16.796c3.0079-0.000022 5.4284 2.4205 5.4284 5.4284v25.993c0 3.0079-2.4205 5.4284-5.4284 5.4284h-16.796c-3.0079-0.000022-5.4284-2.4205-5.4284-5.4284v-25.993c0-3.0079 2.4205-5.4285 5.4284-5.4284zm40.554 0h16.796c3.008-0.000022 5.4285 2.4205 5.4285 5.4284v25.993c0 3.0079-2.4205 5.4284-5.4285 5.4284h-16.796c-3.008-0.000022-5.4284-2.4205-5.4284-5.4284v-25.993c0-3.0079 2.4204-5.4285 5.4284-5.4284zm40.618 0h16.732c3.0079-0.000022 5.4284 2.4205 5.4284 5.4284v25.993c0.00009 3.0079-2.4205 5.4284-5.4284 5.4284h-16.732c-3.008-0.000022-5.4284-2.4205-5.4285-5.4284v-25.993c0.00007-3.0079 2.4206-5.4285 5.4285-5.4284zm40.554 0h16.796c3.0079-0.000022 5.4284 2.4205 5.4284 5.4284v25.993c-0.00008 3.0079-2.4205 5.4284-5.4284 5.4284h-16.796c-3.0079-0.000022-5.4284-2.4205-5.4284-5.4284v-25.993c-0.00008-3.0079 2.4205-5.4285 5.4284-5.4284zm40.618 0h16.732c3.008-0.000022 5.4285 2.4205 5.4285 5.4284v25.993c0 3.0079-2.4205 5.4284-5.4285 5.4284h-16.732c-3.0079-0.000022-5.4284-2.4205-5.4284-5.4284v-25.993c0-3.0079 2.4205-5.4285 5.4284-5.4284zm40.554 0h16.796c3.0079-0.000022 5.4284 2.4205 5.4284 5.4284v25.993c0 3.0079-2.4205 5.4284-5.4284 5.4284h-16.796c-3.008-0.000022-5.4284-2.4205-5.4284-5.4284v-25.993c0-3.0079 2.4206-5.4285 5.4284-5.4284zm40.618 0h16.732c3.0079-0.000022 5.4284 2.4205 5.4284 5.4284v25.993c-0.00008 3.0079-2.4205 5.4284-5.4284 5.4284h-16.732c-3.008-0.000022-5.4284-2.4205-5.4284-5.4284v-25.993c-0.00007-3.0079 2.4205-5.4285 5.4284-5.4284zm40.554 0h16.796c3.008-0.000022 5.4284 2.4205 5.4284 5.4284v25.993c0.00007 3.0079-2.4205 5.4284-5.4284 5.4284h-16.796c-3.0079-0.000022-5.4284-2.4205-5.4284-5.4284v-25.993c0-3.0079 2.4205-5.4285 5.4284-5.4284zm40.554 0h16.796c3.0079-0.000102 5.4284 2.4205 5.4284 5.4284v25.993c0 3.0078-2.4205 5.4284-5.4284 5.4284h-16.796c-3.0079-0.000102-5.4284-2.4205-5.4284-5.4284v-25.993c0-3.008 2.4206-5.4284 5.4284-5.4284zm-1188 53.263h217.2v162.92h-217.2v-162.92zm238.98 0h217.2v162.92h-217.2v-162.92zm239.04 0h217.2v162.92h-217.2v-162.92zm239.04 0h217.14v162.92h-217.14v-162.92zm238.98 0h217.2v162.92h-217.2v-162.92zm-942.7 181.95h16.732c3.008 0.00005 5.4284 2.4205 5.4284 5.4284v25.929c0 3.008-2.4205 5.4285-5.4284 5.4284h-16.732c-3.008 0.00005-5.4284-2.4205-5.4284-5.4284v-25.929c-0.00001-3.0079 2.4205-5.4284 5.4284-5.4284zm40.554 0h16.796c3.0079 0.00005 5.4284 2.4205 5.4284 5.4284v25.929c0 3.008-2.4205 5.4285-5.4284 5.4284h-16.796c-3.0079 0.00005-5.4284-2.4205-5.4284-5.4284v-25.929c0-3.0079 2.4205-5.4284 5.4284-5.4284zm40.618 0h16.732c3.0079 0.00005 5.4284 2.4205 5.4284 5.4284v25.929c0 3.008-2.4205 5.4285-5.4284 5.4284h-16.732c-3.008 0.00005-5.4284-2.4205-5.4284-5.4284v-25.929c0.00001-3.0079 2.4205-5.4284 5.4284-5.4284zm40.554 0h16.796c3.0079 0.00005 5.4284 2.4205 5.4284 5.4284v25.929c0 3.008-2.4205 5.4285-5.4284 5.4284h-16.796c-3.0079 0.00005-5.4284-2.4205-5.4284-5.4284v-25.929c0-3.0079 2.4205-5.4284 5.4284-5.4284zm40.618 0h16.732c3.0079 0.00005 5.4284 2.4205 5.4284 5.4284v25.929c0 3.008-2.4205 5.4285-5.4284 5.4284h-16.732c-3.008 0.00005-5.4284-2.4205-5.4284-5.4284v-25.929c0-3.0079 2.4205-5.4284 5.4284-5.4284zm40.554 0h16.796c3.0079 0.00005 5.4284 2.4205 5.4284 5.4284v25.929c0 3.008-2.4205 5.4285-5.4284 5.4284h-16.796c-3.0079 0.00005-5.4284-2.4205-5.4284-5.4284v-25.929c0-3.0079 2.4205-5.4284 5.4284-5.4284zm40.554 0h16.796c3.0079 0.00005 5.4284 2.4205 5.4284 5.4284v25.929c0.00002 3.008-2.4205 5.4285-5.4284 5.4284h-16.796c-3.0079 0.00005-5.4284-2.4205-5.4284-5.4284v-25.929c0-3.0079 2.4205-5.4284 5.4284-5.4284zm40.617 0h16.796c3.008 0.00005 5.4284 2.4205 5.4284 5.4284v25.929c-0.00002 3.008-2.4205 5.4285-5.4284 5.4284h-16.796c-3.0079 0.00005-5.4284-2.4205-5.4284-5.4284v-25.929c-0.00002-3.0079 2.4205-5.4284 5.4284-5.4284zm40.554 0h16.796c3.0079 0.00005 5.4284 2.4205 5.4284 5.4284v25.929c-0.00003 3.008-2.4205 5.4285-5.4284 5.4284h-16.796c-3.008 0.00005-5.4284-2.4205-5.4284-5.4284v-25.929c-0.00002-3.0079 2.4205-5.4284 5.4284-5.4284zm40.618 0h16.796c3.008 0.00005 5.4285 2.4205 5.4284 5.4284v25.929c0.000034 3.008-2.4205 5.4285-5.4284 5.4284h-16.796c-3.0079 0.00005-5.4285-2.4205-5.4284-5.4284v-25.929c-0.00003-3.0079 2.4205-5.4284 5.4284-5.4284zm40.554 0h16.796c3.0079 0.00005 5.4285 2.4205 5.4285 5.4284v25.929c-0.000017 3.008-2.4205 5.4285-5.4285 5.4284h-16.796c-3.0079 0.00005-5.4284-2.4205-5.4284-5.4284v-25.929c0.000051-3.0079 2.4205-5.4284 5.4284-5.4284zm40.618 0h16.796c3.008 0.00005 5.4285 2.4205 5.4285 5.4284v25.929c0.000017 3.008-2.4205 5.4285-5.4285 5.4284h-16.796c-3.0079 0.00005-5.4285-2.4205-5.4285-5.4284v-25.929c0.000017-3.0079 2.4205-5.4284 5.4285-5.4284zm40.554 0h16.796c3.008 0.00005 5.4284 2.4205 5.4284 5.4284v25.929c0.000034 3.008-2.4205 5.4285-5.4284 5.4284h-16.796c-3.008 0.00005-5.4284-2.4205-5.4284-5.4284v-25.929c0.000017-3.0079 2.4205-5.4284 5.4284-5.4284zm40.617 0h16.796c3.008 0.00001 5.4284 2.4205 5.4284 5.4284v25.929c-0.000017 3.008-2.4205 5.4285-5.4284 5.4284h-16.796c-3.008 0.00004-5.4285-2.4205-5.4285-5.4284v-25.929c-0.000017-3.0079 2.4205-5.4284 5.4285-5.4284zm40.554 0h16.796c3.0079 0.00001 5.4284 2.4205 5.4284 5.4284v25.929c0.00006 3.008-2.4205 5.4285-5.4284 5.4284h-16.796c-3.0079 0.00004-5.4285-2.4205-5.4285-5.4284v-25.929c0.000067-3.0079 2.4205-5.4284 5.4285-5.4284zm40.617 0h16.796c3.008 0.00001 5.4284 2.4205 5.4284 5.4284v25.929c0 3.008-2.4205 5.4285-5.4284 5.4284h-16.796c-3.0079 0.00004-5.4284-2.4205-5.4284-5.4284v-25.929c0-3.0079 2.4205-5.4284 5.4284-5.4284zm40.554 0h16.796c3.0079 0.00001 5.4284 2.4205 5.4285 5.4284v25.929c0 3.008-2.4205 5.4285-5.4285 5.4284h-16.796c-3.0079 0.00004-5.4285-2.4205-5.4284-5.4284v-25.929c0-3.0079 2.4205-5.4284 5.4284-5.4284zm40.617 0h16.796c3.008 0.00001 5.4284 2.4205 5.4284 5.4284v25.929c0 3.008-2.4205 5.4285-5.4284 5.4284h-16.796c-3.008 0.00004-5.4285-2.4205-5.4285-5.4284v-25.929c0-3.0079 2.4205-5.4284 5.4285-5.4284zm40.554 0h16.796c3.0079 0.00001 5.4284 2.4205 5.4284 5.4284v25.929c0 3.008-2.4205 5.4285-5.4284 5.4284h-16.796c-3.0079 0.00004-5.4284-2.4205-5.4284-5.4284v-25.929c0-3.0079 2.4205-5.4284 5.4284-5.4284zm40.618 0h16.796c3.008 0.00001 5.4284 2.4205 5.4285 5.4284v25.929c0 3.008-2.4206 5.4285-5.4285 5.4284h-16.796c-3.008 0.00004-5.4285-2.4205-5.4284-5.4284v-25.929c0-3.0079 2.4205-5.4284 5.4284-5.4284zm40.554 0h16.796c3.008 0.00001 5.4284 2.4205 5.4284 5.4284v25.929c0.00007 3.008-2.4205 5.4285-5.4284 5.4284h-16.796c-3.008 0.00004-5.4285-2.4205-5.4285-5.4284v-25.929c0.00009-3.0079 2.4205-5.4284 5.4285-5.4284zm40.617 0h16.732c3.0079 0.00001 5.4284 2.4205 5.4284 5.4284v25.929c0 3.008-2.4205 5.4285-5.4284 5.4284h-16.732c-3.008 0.00004-5.4284-2.4205-5.4284-5.4284v-25.929c0-3.0079 2.4205-5.4284 5.4284-5.4284zm40.554 0h16.796c3.008 0.00001 5.4285 2.4205 5.4285 5.4284v25.929c0 3.008-2.4205 5.4285-5.4285 5.4284h-16.796c-3.008 0.00004-5.4284-2.4205-5.4284-5.4284v-25.929c-0.00008-3.0079 2.4205-5.4284 5.4284-5.4284zm40.618 0h16.732c3.008 0.00001 5.4285 2.4205 5.4284 5.4284v25.929c0 3.008-2.4205 5.4285-5.4284 5.4284h-16.732c-3.008 0.00004-5.4284-2.4205-5.4285-5.4284v-25.929c0.00007-3.0079 2.4205-5.4284 5.4285-5.4284zm40.554 0h16.796c3.0079 0.00001 5.4284 2.4205 5.4284 5.4284v25.929c0 3.008-2.4205 5.4285-5.4284 5.4284h-16.796c-3.008 0.00004-5.4284-2.4205-5.4284-5.4284v-25.929c0-3.0079 2.4205-5.4284 5.4284-5.4284zm40.618 0h16.732c3.008 0.00001 5.4285 2.4205 5.4285 5.4284v25.929c-0.00009 3.008-2.4205 5.4285-5.4285 5.4284h-16.732c-3.0079 0.00004-5.4284-2.4205-5.4284-5.4284v-25.929c-0.00007-3.0079 2.4205-5.4284 5.4284-5.4284zm40.554 0h16.796c3.0079 0.00001 5.4284 2.4205 5.4284 5.4284v25.929c0 3.008-2.4205 5.4285-5.4284 5.4284h-16.796c-3.008 0.00004-5.4285-2.4205-5.4285-5.4284v-25.929c0-3.0079 2.4205-5.4284 5.4285-5.4284zm40.554 0h16.796c3.008 0.00001 5.4284 2.4205 5.4284 5.4284v25.929c0 3.008-2.4205 5.4285-5.4284 5.4284h-16.796c-3.0079 0.00004-5.4284-2.4205-5.4284-5.4284v-25.929c0-3.0079 2.4204-5.4284 5.4284-5.4284zm40.618 0h16.796c3.008 0.00001 5.4284 2.4205 5.4284 5.4284v25.929c0 3.008-2.4205 5.4285-5.4284 5.4284h-16.796c-3.0079 0.00004-5.4284-2.4205-5.4284-5.4284v-25.929c-0.00007-3.0079 2.4205-5.4284 5.4284-5.4284zm40.554 0h16.796c3.0079 0.00001 5.4284 2.4205 5.4284 5.4284v25.929c0 3.008-2.4205 5.4285-5.4284 5.4284h-16.796c-3.008 0.00004-5.4285-2.4205-5.4285-5.4284v-25.929c0-3.0079 2.4205-5.4284 5.4285-5.4284z"/>
<metadata><rdf:RDF><cc:Work><dc:format>image/svg+xml</dc:format><dc:type rdf:resource="http://purl.org/dc/dcmitype/StillImage"/><cc:license rdf:resource="http://creativecommons.org/licenses/publicdomain/"/><dc:publisher><cc:Agent rdf:about="http://openclipart.org/"><dc:title>Openclipart</dc:title></cc:Agent></dc:publisher><dc:title>Movie tape</dc:title><dc:date>2012-08-04T10:15:38</dc:date><dc:description>Icon movie tape</dc:description><dc:source>http://openclipart.org/detail/171441/movie-tape-by-juancarlos-171441</dc:source><dc:creator><cc:Agent><dc:title>juancarlos</dc:title></cc:Agent></dc:creator><dc:subject><rdf:Bag><rdf:li>clip art</rdf:li><rdf:li>clipart</rdf:li><rdf:li>film</rdf:li><rdf:li>icon</rdf:li><rdf:li>movie</rdf:li><rdf:li>pelicula</rdf:li><rdf:li>pictogram</rdf:li><rdf:li>video</rdf:li><rdf:li>v&#xC3;&#xAD;deo</rdf:li><rdf:li>&#xC3;&#xAD;cone</rdf:li></rdf:Bag></dc:subject></cc:Work><cc:License rdf:about="http://creativecommons.org/licenses/publicdomain/"><cc:permits rdf:resource="http://creativecommons.org/ns#Reproduction"/><cc:permits rdf:resource="http://creativecommons.org/ns#Distribution"/><cc:permits rdf:resource="http://creativecommons.org/ns#DerivativeWorks"/></cc:License></rdf:RDF></metadata></svg>
